CPSC 441 Group Project Group3
…
#Get stats about mean, variance, sd, median, and range for different types of pronouns in each album
stat_pronouns<-pronouns%>%
  group_by(Album,type)%>%
  summarise(mean_pronouns = mean(values), 
            var_pronouns = var(values), 
            sd_pronouns = sd(values),
            median_pronouns = median(values),
            range_pronouns = max(values)-min(values))%>%
  arrange(mean_pronouns)

## `summarise()` regrouping output by 'Album' (override with `.groups` argument)

print(stat_pronouns)

## # A tibble: 32 x 7
## # Groups:   Album [8]
##    Album type  mean_pronouns var_pronouns sd_pronouns median_pronouns
##    <chr> <chr>         <dbl>        <dbl>       <dbl>           <dbl>
##  1 Tayl~ non ~         0.107        0.173       0.416               0
##  2 Lover non ~         0.333        0.914       0.956               0
##  3 Fear~ non ~         0.444        1.45        1.21                0
##  4 Red   non ~         0.526        2.85        1.69                0
##  5 folk~ non ~         0.625        1.92        1.39                0
##  6 Spea~ non ~         0.824        1.79        1.34                0
##  7 1989  non ~         1.1          3.96        1.99                0
##  8 repu~ non ~         1.1          4.16        2.04                0
##  9 1989  fema~         1.33         5.54        2.35                0
## 10 Tayl~ fema~         1.89         5.36        2.31                1
## # ... with 22 more rows, and 1 more variable: range_pronouns <int>
…
